1133154
1133050
1132369
1133038
1132371
1132432
1133140
1132435
1132448
1133190
1133165
1132700
1133195
1132462
1133095
1133103
1132524
1132674
1132414
1133146
1132642
1133059
1133145
1133102
1133093
1132990
1132973
1132981
1132979
1133042
1133104
1132520
1133134
1133138
1132620
1133123
1132612
1133839
1132474
1132588
1132676
1133843
1132416
1133156
1133121
1132615
1132387
1134353
1132715
1132477
1133143
1132400
1132645
1133111
1132617
1132998
1133029
1133127
1132476
1133148
1132475
1132648
1132466
1132665
1133137
1132999
1133106
1132650
1132672
1132819
1132697
1133000
1133045
1133089
1132678
1132449
1132706
1132728
1133039
1133032
1132911
1132670
1132370
1133841
1132968
1132434
1132451
1132423